[api-updater (non-obsolete-error-filter)] 29.09.2021 10:42:03 : Starting C:/Program Files/Unity/Hub/Editor/2020.3.18f1/Editor/Data/Tools/ScriptUpdater/APIUpdater.NonObsoleteApiUpdaterDetector.exe
[api-updater (non-obsolete-error-filter)] 
----------------------------------
jit/startup time      : 500,0342ms
moved types parse time: 40ms
candidates parse time : 0ms
C# parse time         : 223ms
candidates check time : 39ms
console write time    : 0ms

[api-updater (non-obsolete-error-filter)] 29.09.2021 13:40:52 : Starting C:/Program Files/Unity/Hub/Editor/2020.3.18f1/Editor/Data/Tools/ScriptUpdater/APIUpdater.NonObsoleteApiUpdaterDetector.exe
[api-updater (non-obsolete-error-filter)] 
----------------------------------
jit/startup time      : 62,0142ms
moved types parse time: 39ms
candidates parse time : 1ms
C# parse time         : 173ms
candidates check time : 37ms
console write time    : 0ms

[api-updater (non-obsolete-error-filter)] 29.09.2021 13:40:57 : Starting C:/Program Files/Unity/Hub/Editor/2020.3.18f1/Editor/Data/Tools/ScriptUpdater/APIUpdater.NonObsoleteApiUpdaterDetector.exe
[api-updater (non-obsolete-error-filter)] 
----------------------------------
jit/startup time      : 54,0124ms
moved types parse time: 41ms
candidates parse time : 1ms
C# parse time         : 174ms
candidates check time : 33ms
console write time    : 0ms

[api-updater (non-obsolete-error-filter)] 30.09.2021 13:41:19 : Starting C:/Program Files/Unity/Hub/Editor/2020.3.18f1/Editor/Data/Tools/ScriptUpdater/APIUpdater.NonObsoleteApiUpdaterDetector.exe
[api-updater (non-obsolete-error-filter)] 
----------------------------------
jit/startup time      : 522,9713ms
moved types parse time: 40ms
candidates parse time : 1ms
C# parse time         : 240ms
candidates check time : 45ms
console write time    : 0ms

[api-updater (non-obsolete-error-filter)] 30.09.2021 14:48:36 : Starting C:/Program Files/Unity/Hub/Editor/2020.3.18f1/Editor/Data/Tools/ScriptUpdater/APIUpdater.NonObsoleteApiUpdaterDetector.exe
[api-updater (non-obsolete-error-filter)] 
----------------------------------
jit/startup time      : 60,0286ms
moved types parse time: 39ms
candidates parse time : 1ms
C# parse time         : 179ms
candidates check time : 37ms
console write time    : 0ms

[api-updater (non-obsolete-error-filter)] 30.09.2021 15:24:36 : Starting C:/Program Files/Unity/Hub/Editor/2020.3.18f1/Editor/Data/Tools/ScriptUpdater/APIUpdater.NonObsoleteApiUpdaterDetector.exe
[api-updater (non-obsolete-error-filter)] 
----------------------------------
jit/startup time      : 59,0134ms
moved types parse time: 40ms
candidates parse time : 1ms
C# parse time         : 175ms
candidates check time : 35ms
console write time    : 0ms

[api-updater (non-obsolete-error-filter)] 30.09.2021 22:58:19 : Starting D:/Programms/Unity/2020.3.18f1/Editor/Data/Tools/ScriptUpdater/APIUpdater.NonObsoleteApiUpdaterDetector.exe
[api-updater (non-obsolete-error-filter)] 
----------------------------------
jit/startup time      : 930,5297ms
moved types parse time: 71ms
candidates parse time : 2ms
C# parse time         : 744ms
candidates check time : 53ms
console write time    : 1ms

[api-updater (non-obsolete-error-filter)] 30.09.2021 22:58:29 : Starting D:/Programms/Unity/2020.3.18f1/Editor/Data/Tools/ScriptUpdater/APIUpdater.NonObsoleteApiUpdaterDetector.exe
[api-updater (non-obsolete-error-filter)] 
----------------------------------
jit/startup time      : 70,058ms
moved types parse time: 85ms
candidates parse time : 2ms
C# parse time         : 216ms
candidates check time : 23ms
console write time    : 0ms

[api-updater (non-obsolete-error-filter)] 30.09.2021 22:58:36 : Starting D:/Programms/Unity/2020.3.18f1/Editor/Data/Tools/ScriptUpdater/APIUpdater.NonObsoleteApiUpdaterDetector.exe
[api-updater (non-obsolete-error-filter)] 
----------------------------------
jit/startup time      : 79,2021ms
moved types parse time: 46ms
candidates parse time : 1ms
C# parse time         : 178ms
candidates check time : 24ms
console write time    : 0ms

[api-updater (non-obsolete-error-filter)] 30.09.2021 22:58:42 : Starting D:/Programms/Unity/2020.3.18f1/Editor/Data/Tools/ScriptUpdater/APIUpdater.NonObsoleteApiUpdaterDetector.exe
[api-updater (non-obsolete-error-filter)] 
----------------------------------
jit/startup time      : 116,7632ms
moved types parse time: 45ms
candidates parse time : 1ms
C# parse time         : 166ms
candidates check time : 26ms
console write time    : 0ms

[api-updater (non-obsolete-error-filter)] 01.10.2021 12:38:46 : Starting C:/Program Files/Unity/Hub/Editor/2020.3.18f1/Editor/Data/Tools/ScriptUpdater/APIUpdater.NonObsoleteApiUpdaterDetector.exe
[api-updater (non-obsolete-error-filter)] 
----------------------------------
jit/startup time      : 562,5358ms
moved types parse time: 46ms
candidates parse time : 1ms
C# parse time         : 314ms
candidates check time : 42ms
console write time    : 1ms

[api-updater (non-obsolete-error-filter)] 01.10.2021 13:47:30 : Starting C:/Program Files/Unity/Hub/Editor/2020.3.18f1/Editor/Data/Tools/ScriptUpdater/APIUpdater.NonObsoleteApiUpdaterDetector.exe
[api-updater (non-obsolete-error-filter)] 
----------------------------------
jit/startup time      : 551,7621ms
moved types parse time: 41ms
candidates parse time : 1ms
C# parse time         : 249ms
candidates check time : 36ms
console write time    : 0ms

[api-updater (non-obsolete-error-filter)] 01.10.2021 13:47:49 : Starting C:/Program Files/Unity/Hub/Editor/2020.3.18f1/Editor/Data/Tools/ScriptUpdater/APIUpdater.NonObsoleteApiUpdaterDetector.exe
[api-updater (non-obsolete-error-filter)] 
----------------------------------
jit/startup time      : 46,8775ms
moved types parse time: 39ms
candidates parse time : 0ms
C# parse time         : 178ms
candidates check time : 40ms
console write time    : 0ms

[api-updater (non-obsolete-error-filter)] 01.10.2021 13:48:09 : Starting C:/Program Files/Unity/Hub/Editor/2020.3.18f1/Editor/Data/Tools/ScriptUpdater/APIUpdater.NonObsoleteApiUpdaterDetector.exe
[api-updater (non-obsolete-error-filter)] 
----------------------------------
jit/startup time      : 46,8781ms
moved types parse time: 39ms
candidates parse time : 0ms
C# parse time         : 181ms
candidates check time : 35ms
console write time    : 0ms

[api-updater (non-obsolete-error-filter)] 01.10.2021 15:14:56 : Starting C:/Program Files/Unity/Hub/Editor/2020.3.18f1/Editor/Data/Tools/ScriptUpdater/APIUpdater.NonObsoleteApiUpdaterDetector.exe
[api-updater (non-obsolete-error-filter)] 
----------------------------------
jit/startup time      : 46,8787ms
moved types parse time: 40ms
candidates parse time : 1ms
C# parse time         : 161ms
candidates check time : 26ms
console write time    : 0ms

[api-updater (non-obsolete-error-filter)] 01.10.2021 15:26:07 : Starting C:/Program Files/Unity/Hub/Editor/2020.3.18f1/Editor/Data/Tools/ScriptUpdater/APIUpdater.NonObsoleteApiUpdaterDetector.exe
[api-updater (non-obsolete-error-filter)] 
----------------------------------
jit/startup time      : 46,8779ms
moved types parse time: 40ms
candidates parse time : 1ms
C# parse time         : 162ms
candidates check time : 24ms
console write time    : 0ms

[api-updater (non-obsolete-error-filter)] 02.10.2021 0:40:50 : Starting D:/Programms/Unity/2020.3.18f1/Editor/Data/Tools/ScriptUpdater/APIUpdater.NonObsoleteApiUpdaterDetector.exe
[api-updater (non-obsolete-error-filter)] 
----------------------------------
jit/startup time      : 628,8169ms
moved types parse time: 48ms
candidates parse time : 0ms
C# parse time         : 483ms
candidates check time : 21ms
console write time    : 0ms

[api-updater (non-obsolete-error-filter)] 02.10.2021 0:57:43 : Starting D:/Programms/Unity/2020.3.18f1/Editor/Data/Tools/ScriptUpdater/APIUpdater.NonObsoleteApiUpdaterDetector.exe
[api-updater (non-obsolete-error-filter)] 
----------------------------------
jit/startup time      : 69,0149ms
moved types parse time: 45ms
candidates parse time : 1ms
C# parse time         : 161ms
candidates check time : 24ms
console write time    : 0ms

[api-updater (non-obsolete-error-filter)] 02.10.2021 1:10:41 : Starting D:/Programms/Unity/2020.3.18f1/Editor/Data/Tools/ScriptUpdater/APIUpdater.NonObsoleteApiUpdaterDetector.exe
[api-updater (non-obsolete-error-filter)] 
----------------------------------
jit/startup time      : 72,0287ms
moved types parse time: 45ms
candidates parse time : 1ms
C# parse time         : 222ms
candidates check time : 31ms
console write time    : 0ms

[api-updater (non-obsolete-error-filter)] 02.10.2021 1:10:46 : Starting D:/Programms/Unity/2020.3.18f1/Editor/Data/Tools/ScriptUpdater/APIUpdater.NonObsoleteApiUpdaterDetector.exe
[api-updater (non-obsolete-error-filter)] 
----------------------------------
jit/startup time      : 64,0194ms
moved types parse time: 46ms
candidates parse time : 1ms
C# parse time         : 183ms
candidates check time : 27ms
console write time    : 0ms

[api-updater (non-obsolete-error-filter)] 02.10.2021 1:12:13 : Starting D:/Programms/Unity/2020.3.18f1/Editor/Data/Tools/ScriptUpdater/APIUpdater.NonObsoleteApiUpdaterDetector.exe
[api-updater (non-obsolete-error-filter)] 
----------------------------------
jit/startup time      : 63,0144ms
moved types parse time: 45ms
candidates parse time : 1ms
C# parse time         : 178ms
candidates check time : 30ms
console write time    : 0ms

[api-updater (non-obsolete-error-filter)] 02.10.2021 1:16:20 : Starting D:/Programms/Unity/2020.3.18f1/Editor/Data/Tools/ScriptUpdater/APIUpdater.NonObsoleteApiUpdaterDetector.exe
[api-updater (non-obsolete-error-filter)] 
----------------------------------
jit/startup time      : 66,0133ms
moved types parse time: 47ms
candidates parse time : 0ms
C# parse time         : 194ms
candidates check time : 28ms
console write time    : 0ms

[api-updater (non-obsolete-error-filter)] 02.10.2021 1:16:32 : Starting D:/Programms/Unity/2020.3.18f1/Editor/Data/Tools/ScriptUpdater/APIUpdater.NonObsoleteApiUpdaterDetector.exe
[api-updater (non-obsolete-error-filter)] 
----------------------------------
jit/startup time      : 65,034ms
moved types parse time: 47ms
candidates parse time : 1ms
C# parse time         : 184ms
candidates check time : 27ms
console write time    : 0ms

[api-updater (non-obsolete-error-filter)] 02.10.2021 1:16:43 : Starting D:/Programms/Unity/2020.3.18f1/Editor/Data/Tools/ScriptUpdater/APIUpdater.NonObsoleteApiUpdaterDetector.exe
[api-updater (non-obsolete-error-filter)] 
----------------------------------
jit/startup time      : 63,0135ms
moved types parse time: 48ms
candidates parse time : 0ms
C# parse time         : 192ms
candidates check time : 30ms
console write time    : 0ms

[api-updater (non-obsolete-error-filter)] 02.10.2021 1:17:21 : Starting D:/Programms/Unity/2020.3.18f1/Editor/Data/Tools/ScriptUpdater/APIUpdater.NonObsoleteApiUpdaterDetector.exe
[api-updater (non-obsolete-error-filter)] 
----------------------------------
jit/startup time      : 63,0127ms
moved types parse time: 46ms
candidates parse time : 0ms
C# parse time         : 181ms
candidates check time : 26ms
console write time    : 0ms

[api-updater (non-obsolete-error-filter)] 02.10.2021 1:19:36 : Starting D:/Programms/Unity/2020.3.18f1/Editor/Data/Tools/ScriptUpdater/APIUpdater.NonObsoleteApiUpdaterDetector.exe
[api-updater (non-obsolete-error-filter)] 
----------------------------------
jit/startup time      : 62,8543ms
moved types parse time: 47ms
candidates parse time : 1ms
C# parse time         : 219ms
candidates check time : 46ms
console write time    : 0ms

[api-updater (non-obsolete-error-filter)] 02.10.2021 8:17:14 : Starting D:/Programms/Unity/2020.3.18f1/Editor/Data/Tools/ScriptUpdater/APIUpdater.NonObsoleteApiUpdaterDetector.exe
[api-updater (non-obsolete-error-filter)] 
----------------------------------
jit/startup time      : 97,5675ms
moved types parse time: 53ms
candidates parse time : 1ms
C# parse time         : 203ms
candidates check time : 31ms
console write time    : 0ms

[api-updater (non-obsolete-error-filter)] 02.10.2021 8:19:15 : Starting D:/Programms/Unity/2020.3.18f1/Editor/Data/Tools/ScriptUpdater/APIUpdater.NonObsoleteApiUpdaterDetector.exe
[api-updater (non-obsolete-error-filter)] 
----------------------------------
jit/startup time      : 110,0406ms
moved types parse time: 83ms
candidates parse time : 1ms
C# parse time         : 301ms
candidates check time : 40ms
console write time    : 0ms

